<svg viewBox="0 0 15 16" fill="none" xmlns="http://www.w3.org/2000/svg">
<path d="M14.36 11.6943C14.68 11.4543 14.68 10.9743 14.36 10.7343L11.3543 8.48C11.0906 8.28223 10.7143 8.47038 10.7143 8.8V10.1429H9.64286C9.26679 10.1429 8.90732 10.2109 8.57143 10.3304V4.78571H9.91428C10.2439 4.78571 10.4321 4.40941 10.2343 4.14571L7.98 1.14C7.74 0.82 7.26 0.82 7.02 1.14L4.76571 4.14571C4.56794 4.40941 4.7561 4.78571 5.08571 4.78571H6.42857V7.65179C6.09268 7.53232 5.73321 7.46429 5.35714 7.46429H4.28571V6.12143C4.28571 5.79181 3.90941 5.60366 3.64571 5.80143L0.64 8.05571C0.32 8.29571 0.32 8.77571 0.64 9.01571L3.64571 11.27C3.90941 11.4678 4.28571 11.2796 4.28571 10.95V9.60714H5.35714C5.94857 9.60714 6.42857 10.0877 6.42857 10.6786V15.1C6.42857 15.3209 6.60766 15.5 6.82857 15.5H8.17143C8.39234 15.5 8.57143 15.3209 8.57143 15.1V13.3571C8.57143 12.7662 9.05196 12.2857 9.64286 12.2857H10.7143V13.6286C10.7143 13.9582 11.0906 14.1463 11.3543 13.9486L14.36 11.6943Z" fill="#C0B8CC"/>
</svg>
