<svg viewBox="0 0 16 13" fill="none" xmlns="http://www.w3.org/2000/svg">
<path d="M6.04244 5.10478C7.45209 5.10478 8.59483 3.96204 8.59483 2.55239C8.59483 1.14274 7.45209 0 6.04244 0C4.6328 0 3.49005 1.14274 3.49005 2.55239C3.49005 3.96204 4.6328 5.10478 6.04244 5.10478Z" fill="#4305EB"/>
<path d="M11.7741 5.03761C12.8252 5.03761 13.6772 4.18556 13.6772 3.13451C13.6772 2.08346 12.8252 1.23141 11.7741 1.23141C10.7231 1.23141 9.87103 2.08346 9.87103 3.13451C9.87103 4.18556 10.7231 5.03761 11.7741 5.03761Z" fill="#6937EF"/>
<path d="M15.5579 9.5379C15.1773 7.14224 13.9235 5.70932 11.7741 5.70932C10.9457 5.70932 10.274 5.91082 9.71429 6.31383C9.78146 6.381 9.84863 6.44817 9.93819 6.51534C10.8562 7.47808 11.4831 8.86622 11.7741 10.635C11.7741 10.7022 11.7965 10.7693 11.7965 10.8141C13.8787 10.8365 15.7146 10.4783 15.5579 9.5379Z" fill="#6937EF"/>
<path d="M6.04245 12.4933C3.24377 12.4933 0.780941 12.0007 0.982445 10.7693C1.51979 7.5452 3.19899 5.66449 6.04245 5.66449C8.8859 5.66449 10.5651 7.56759 11.1024 10.7693C11.3039 12.0007 8.84112 12.4933 6.04245 12.4933Z" fill="#4305EB"/>
</svg>
