<svg width="24" height="14" viewBox="0 0 24 14" fill="none" xmlns="http://www.w3.org/2000/svg">
<path d="M15.6744 10.3869C13.9895 10.3869 12.6273 9.0247 12.6273 7.33986L12.6273 5.97764C12.6273 4.2928 13.9895 2.93058 15.6744 2.93058L19.0082 2.93058C20.693 2.93058 22.0553 4.2928 22.0553 5.97764L22.0553 7.33986C22.0553 9.0247 20.693 10.3869 19.0082 10.3869L15.6744 10.3869ZM17.9686 8.52284L19.044 8.52284C19.6893 8.52284 20.227 7.98512 20.2449 7.32194L20.2449 5.95972C20.2449 5.31446 19.7072 4.77674 19.044 4.75882L15.7102 4.75882C15.0649 4.75882 14.5272 5.29654 14.5093 5.95972L14.5093 7.32194C14.5093 7.9672 15.047 8.50491 15.7102 8.52283L16.463 8.52284L17.9686 8.52284Z" fill="#3C04D1"/>
<path d="M4.9917 10.387C3.30685 10.387 1.94464 9.02477 1.94464 7.33992L1.94464 5.97771C1.94464 4.29286 3.30685 2.93065 4.9917 2.93065L8.28969 2.93065C9.97454 2.93065 11.3368 4.29286 11.3368 5.97771L11.3368 7.33992C11.3368 9.02477 9.97454 10.387 8.28969 10.387L4.9917 10.387ZM5.18886 4.77681L5.00962 4.77681C4.36436 4.77681 3.82665 5.31452 3.80872 5.9777L3.80872 7.33992C3.80872 7.98518 4.34644 8.5229 5.00962 8.54082L8.30762 8.54082C8.95288 8.54082 9.49059 8.0031 9.50852 7.33992L9.50852 5.97771C9.50852 5.33245 8.9708 4.79473 8.30762 4.77681L7.51897 4.77681L5.18886 4.77681Z" fill="#4305EB"/>
<path d="M8.79164 7.59079C8.25392 7.59079 7.80583 7.14269 7.80583 6.60498C7.80583 6.06726 8.25392 5.61917 8.79164 5.61917L14.8499 5.61917C15.3876 5.61917 15.8357 6.06726 15.8357 6.60498C15.8357 7.1427 15.3876 7.59079 14.8499 7.59079L14.4914 7.59079" fill="#6937EF"/>
</svg>
