<svg width="20" height="20" viewBox="0 0 20 20" fill="none" xmlns="http://www.w3.org/2000/svg">
<rect width="20" height="20" rx="2" fill="#F0F0F0"/>
<g clip-path="url(#clip0)">
<path d="M5.86074 11.9691C5.86074 11.6555 5.94264 11.3421 6.10626 11.0626C6.42702 10.5147 7.02066 10.1876 7.69404 10.1876C8.09382 10.1876 8.44032 10.3453 8.66658 10.4637C8.90148 10.587 9.19146 10.5022 9.327 10.2708C9.5475 9.89581 9.18444 9.65713 9.1425 9.63121C8.83308 9.44059 8.61186 9.22027 8.44626 8.93749C8.12424 8.38759 8.12424 7.67479 8.44626 7.12471C8.77818 6.55825 9.35886 6.22003 10 6.22003C10.646 6.22003 11.2096 6.54961 11.5464 7.12435C11.7052 7.39597 11.7903 7.70521 11.7925 8.01877C11.7968 8.34457 11.7097 8.65867 11.5464 8.93749C11.3777 9.22513 11.159 9.44545 10.8572 9.63139C10.623 9.77557 10.5438 10.0506 10.673 10.2709C10.8642 10.5973 11.1886 10.5399 11.3335 10.4639C11.5595 10.3453 11.9066 10.1876 12.3058 10.1876C12.9794 10.1876 13.573 10.5147 13.8938 11.0626C14.221 11.6213 14.2212 12.3161 13.8938 12.8754C13.5669 13.4334 12.9587 13.78 12.3058 13.78C11.6531 13.78 11.0447 13.4334 10.718 12.8755C10.5204 12.5382 10.4839 12.1748 10.4741 11.8962C10.4646 11.6321 10.2565 11.4256 10 11.4256C9.55542 11.4256 9.5277 11.8477 9.5259 11.8958C9.516 12.175 9.47946 12.5384 9.28218 12.8754C8.95548 13.4334 8.34708 13.7799 7.69422 13.7799C7.04154 13.7799 6.43314 13.4332 6.10644 12.8754C5.94264 12.596 5.86074 12.2826 5.86074 11.9691Z" fill="black"/>
</g>
<defs>
<clipPath id="clip0">
<rect x="14.5" y="5.5" width="9" height="9" transform="rotate(90 14.5 5.5)" fill="white"/>
</clipPath>
</defs>
</svg>
