<svg viewBox="0 0 35 44" fill="none" xmlns="http://www.w3.org/2000/svg">
<path d="M29.0616 43.7237H5.93844C2.68018 43.7237 0 41.0961 0 37.7853V5.93844C0 2.68018 2.62763 0 5.93844 0H22.1246L35 13.2432V37.7853C35 41.0435 32.3198 43.7237 29.0616 43.7237ZM5.93844 2.25976C3.88889 2.25976 2.20721 3.94144 2.20721 5.99099V37.8378C2.20721 39.8874 3.88889 41.5691 5.93844 41.5691H29.0616C31.1111 41.5691 32.7928 39.8874 32.7928 37.8378V14.8198H20.548V2.25976H5.93844ZM22.7553 12.6126H31.3213L22.7553 3.83634V12.6126Z" fill="#E9E4F1"/>
<path d="M28.4835 21.3889H6.56909V23.5961H28.4835V21.3889Z" fill="#E9E4F1"/>
<path d="M28.4835 16.9745H6.56909V19.1817H28.4835V16.9745Z" fill="#E9E4F1"/>
<path d="M28.4835 25.7507H6.56909V27.9579H28.4835V25.7507Z" fill="#E9E4F1"/>
<path d="M28.4835 30.1127H6.56909V32.3199H28.4835V30.1127Z" fill="#E9E4F1"/>
<path d="M28.4835 34.527H6.56909V36.7342H28.4835V34.527Z" fill="#E9E4F1"/>
<path d="M16.0286 12.6127H6.56909V14.8199H16.0286V12.6127Z" fill="#E9E4F1"/>
</svg>
