<svg viewBox="0 0 14 14" fill="none" xmlns="http://www.w3.org/2000/svg">
<path d="M11.2914 0H2.47292C1.37685 0 0.5 0.8867 0.5 1.96007V6.76018C0.5 7.84911 1.39251 8.72025 2.47292 8.72025H11.2914C12.3874 8.72025 13.2643 7.83356 13.2643 6.76018V1.96007C13.2643 0.8867 12.3718 0 11.2914 0Z" fill="#4305EB"/>
<circle cx="7" cy="4.2002" r="2.5" fill="white"/>
<rect x="1.5" y="10.7002" width="3" height="3" rx="1" fill="#6937EF"/>
<rect x="5.5" y="10.7002" width="3" height="3" rx="1" fill="#6937EF"/>
<rect x="9.5" y="10.7002" width="3" height="3" rx="1" fill="#6937EF"/>
</svg>
