<svg width="20" height="20" viewBox="0 0 20 20" fill="none" xmlns="http://www.w3.org/2000/svg">
<rect width="20" height="20" rx="2" fill="#FEEADE" fill-opacity="0.4"/>
<path d="M9.99999 15.5C12.3196 15.5 14.2 13.6196 14.2 11.3C14.2 8.98038 12.3196 7.09998 9.99999 7.09998C7.68039 7.09998 5.79999 8.98038 5.79999 11.3C5.79999 13.6196 7.68039 15.5 9.99999 15.5Z" stroke="#F78C2A" stroke-linecap="round" stroke-linejoin="round"/>
<path d="M10 11.3L11.4567 9.72498" stroke="#F78C2A" stroke-linecap="round" stroke-linejoin="round"/>
<path d="M10 7.1V5" stroke="#F78C2A" stroke-linecap="round" stroke-linejoin="round"/>
<path d="M8.95001 5H11.05" stroke="#F78C2A" stroke-linecap="round" stroke-linejoin="round"/>
<path d="M12.6949 8.03308L13.628 7.09998" stroke="#F78C2A" stroke-linecap="round" stroke-linejoin="round"/>
<path d="M7.09497 8.03308L6.16187 7.09998" stroke="#F78C2A" stroke-linecap="round" stroke-linejoin="round"/>
</svg>
