<svg viewBox="0 0 16 17" fill="none" xmlns="http://www.w3.org/2000/svg">
<g clip-path="url(#clip0)">
<path d="M13.5912 6.7998H4.77273C3.67666 6.7998 2.7998 7.6865 2.7998 8.75988V13.56C2.7998 14.6489 3.69232 15.5201 4.77273 15.5201H13.5912C14.6873 15.5201 15.5641 14.6334 15.5641 13.56V8.75988C15.5641 7.6865 14.6716 6.7998 13.5912 6.7998Z" fill="#6937EF"/>
<path d="M10.7914 1.9998H1.97292C0.435821 1.9998 -0.8 3.24388 -0.8 4.75988V9.55999C-0.8 11.0998 0.459772 12.3201 1.97292 12.3201H10.7914C12.3285 12.3201 13.5643 11.076 13.5643 9.55999V4.75988C13.5643 3.23976 12.3087 1.9998 10.7914 1.9998Z" fill="#4305EB" stroke="white" stroke-width="1.6"/>
<circle cx="6.5" cy="7" r="2.5" fill="white"/>
</g>
<defs>
<clipPath id="clip0">
<rect width="16" height="16" fill="white" transform="translate(0 0.5)"/>
</clipPath>
</defs>
</svg>
